{
  "name": "swap",
  "version": "1.0.0",
  "dependencies": {
    "apn": {
      "version": "1.7.2",
      "from": "apn@",
      "resolved": "https://registry.npmjs.org/apn/-/apn-1.7.2.tgz",
      "dependencies": {
        "node-forge": {
          "version": "0.6.20",
          "from": "node-forge@0.6.x",
          "resolved": "https://registry.npmjs.org/node-forge/-/node-forge-0.6.20.tgz"
        },
        "q": {
          "version": "1.1.2",
          "from": "q@1.1.x",
          "resolved": "https://registry.npmjs.org/q/-/q-1.1.2.tgz"
        }
      }
    },
    "body-parser": {
      "version": "1.12.0",
      "from": "body-parser@",
      "resolved": "https://registry.npmjs.org/body-parser/-/body-parser-1.12.0.tgz",
      "dependencies": {
        "bytes": {
          "version": "1.0.0",
          "from": "bytes@1.0.0",
          "resolved": "https://registry.npmjs.org/bytes/-/bytes-1.0.0.tgz"
        },
        "content-type": {
          "version": "1.0.1",
          "from": "content-type@~1.0.1",
          "resolved": "https://registry.npmjs.org/content-type/-/content-type-1.0.1.tgz"
        },
        "debug": {
          "version": "2.1.1",
          "from": "debug@~2.1.1",
          "dependencies": {
            "ms": {
              "version": "0.6.2",
              "from": "ms@0.6.2"
            }
          }
        },
        "depd": {
          "version": "1.0.0",
          "from": "depd@~1.0.0"
        },
        "iconv-lite": {
          "version": "0.4.7",
          "from": "iconv-lite@0.4.7",
          "resolved": "https://registry.npmjs.org/iconv-lite/-/iconv-lite-0.4.7.tgz"
        },
        "on-finished": {
          "version": "2.2.0",
          "from": "on-finished@~2.2.0",
          "dependencies": {
            "ee-first": {
              "version": "1.1.0",
              "from": "ee-first@1.1.0"
            }
          }
        },
        "qs": {
          "version": "2.3.3",
          "from": "qs@2.3.3"
        },
        "raw-body": {
          "version": "1.3.3",
          "from": "raw-body@1.3.3",
          "resolved": "https://registry.npmjs.org/raw-body/-/raw-body-1.3.3.tgz"
        },
        "type-is": {
          "version": "1.6.0",
          "from": "type-is@~1.6.0",
          "resolved": "https://registry.npmjs.org/type-is/-/type-is-1.6.0.tgz",
          "dependencies": {
            "media-typer": {
              "version": "0.3.0",
              "from": "media-typer@0.3.0"
            },
            "mime-types": {
              "version": "2.0.9",
              "from": "mime-types@~2.0.9",
              "dependencies": {
                "mime-db": {
                  "version": "1.7.0",
                  "from": "mime-db@~1.7.0"
                }
              }
            }
          }
        }
      }
    },
    "express": {
      "version": "4.11.2",
      "from": "express@",
      "resolved": "https://registry.npmjs.org/express/-/express-4.11.2.tgz",
      "dependencies": {
        "accepts": {
          "version": "1.2.3",
          "from": "accepts@~1.2.3",
          "resolved": "https://registry.npmjs.org/accepts/-/accepts-1.2.3.tgz",
          "dependencies": {
            "mime-types": {
              "version": "2.0.9",
              "from": "mime-types@~2.0.9",
              "resolved": "https://registry.npmjs.org/mime-types/-/mime-types-2.0.9.tgz",
              "dependencies": {
                "mime-db": {
                  "version": "1.7.0",
                  "from": "mime-db@~1.7.0",
                  "resolved": "https://registry.npmjs.org/mime-db/-/mime-db-1.7.0.tgz"
                }
              }
            },
            "negotiator": {
              "version": "0.5.0",
              "from": "negotiator@0.5.0",
              "resolved": "https://registry.npmjs.org/negotiator/-/negotiator-0.5.0.tgz"
            }
          }
        },
        "content-disposition": {
          "version": "0.5.0",
          "from": "content-disposition@0.5.0",
          "resolved": "https://registry.npmjs.org/content-disposition/-/content-disposition-0.5.0.tgz"
        },
        "cookie-signature": {
          "version": "1.0.5",
          "from": "cookie-signature@1.0.5",
          "resolved": "https://registry.npmjs.org/cookie-signature/-/cookie-signature-1.0.5.tgz"
        },
        "debug": {
          "version": "2.1.1",
          "from": "debug@~2.1.1",
          "resolved": "https://registry.npmjs.org/debug/-/debug-2.1.1.tgz",
          "dependencies": {
            "ms": {
              "version": "0.6.2",
              "from": "ms@0.6.2",
              "resolved": "https://registry.npmjs.org/ms/-/ms-0.6.2.tgz"
            }
          }
        },
        "depd": {
          "version": "1.0.0",
          "from": "depd@~1.0.0",
          "resolved": "https://registry.npmjs.org/depd/-/depd-1.0.0.tgz"
        },
        "escape-html": {
          "version": "1.0.1",
          "from": "escape-html@1.0.1",
          "resolved": "https://registry.npmjs.org/escape-html/-/escape-html-1.0.1.tgz"
        },
        "etag": {
          "version": "1.5.1",
          "from": "etag@~1.5.1",
          "resolved": "https://registry.npmjs.org/etag/-/etag-1.5.1.tgz",
          "dependencies": {
            "crc": {
              "version": "3.2.1",
              "from": "crc@3.2.1",
              "resolved": "https://registry.npmjs.org/crc/-/crc-3.2.1.tgz"
            }
          }
        },
        "finalhandler": {
          "version": "0.3.3",
          "from": "finalhandler@0.3.3",
          "resolved": "https://registry.npmjs.org/finalhandler/-/finalhandler-0.3.3.tgz"
        },
        "fresh": {
          "version": "0.2.4",
          "from": "fresh@0.2.4",
          "resolved": "https://registry.npmjs.org/fresh/-/fresh-0.2.4.tgz"
        },
        "media-typer": {
          "version": "0.3.0",
          "from": "media-typer@0.3.0",
          "resolved": "https://registry.npmjs.org/media-typer/-/media-typer-0.3.0.tgz"
        },
        "methods": {
          "version": "1.1.1",
          "from": "methods@~1.1.1",
          "resolved": "https://registry.npmjs.org/methods/-/methods-1.1.1.tgz"
        },
        "on-finished": {
          "version": "2.2.0",
          "from": "on-finished@~2.2.0",
          "resolved": "https://registry.npmjs.org/on-finished/-/on-finished-2.2.0.tgz",
          "dependencies": {
            "ee-first": {
              "version": "1.1.0",
              "from": "ee-first@1.1.0",
              "resolved": "https://registry.npmjs.org/ee-first/-/ee-first-1.1.0.tgz"
            }
          }
        },
        "parseurl": {
          "version": "1.3.0",
          "from": "parseurl@~1.3.0",
          "resolved": "https://registry.npmjs.org/parseurl/-/parseurl-1.3.0.tgz"
        },
        "path-to-regexp": {
          "version": "0.1.3",
          "from": "path-to-regexp@0.1.3",
          "resolved": "https://registry.npmjs.org/path-to-regexp/-/path-to-regexp-0.1.3.tgz"
        },
        "proxy-addr": {
          "version": "1.0.6",
          "from": "proxy-addr@~1.0.6",
          "resolved": "https://registry.npmjs.org/proxy-addr/-/proxy-addr-1.0.6.tgz",
          "dependencies": {
            "forwarded": {
              "version": "0.1.0",
              "from": "forwarded@~0.1.0",
              "resolved": "https://registry.npmjs.org/forwarded/-/forwarded-0.1.0.tgz"
            },
            "ipaddr.js": {
              "version": "0.1.8",
              "from": "ipaddr.js@0.1.8",
              "resolved": "https://registry.npmjs.org/ipaddr.js/-/ipaddr.js-0.1.8.tgz"
            }
          }
        },
        "qs": {
          "version": "2.3.3",
          "from": "qs@2.3.3",
          "resolved": "https://registry.npmjs.org/qs/-/qs-2.3.3.tgz"
        },
        "range-parser": {
          "version": "1.0.2",
          "from": "range-parser@~1.0.2",
          "resolved": "https://registry.npmjs.org/range-parser/-/range-parser-1.0.2.tgz"
        },
        "send": {
          "version": "0.11.1",
          "from": "send@0.11.1",
          "resolved": "https://registry.npmjs.org/send/-/send-0.11.1.tgz",
          "dependencies": {
            "destroy": {
              "version": "1.0.3",
              "from": "destroy@1.0.3",
              "resolved": "https://registry.npmjs.org/destroy/-/destroy-1.0.3.tgz"
            },
            "mime": {
              "version": "1.2.11",
              "from": "mime@1.2.11",
              "resolved": "https://registry.npmjs.org/mime/-/mime-1.2.11.tgz"
            },
            "ms": {
              "version": "0.7.0",
              "from": "ms@0.7.0",
              "resolved": "https://registry.npmjs.org/ms/-/ms-0.7.0.tgz"
            }
          }
        },
        "serve-static": {
          "version": "1.8.1",
          "from": "serve-static@~1.8.1",
          "resolved": "https://registry.npmjs.org/serve-static/-/serve-static-1.8.1.tgz"
        },
        "type-is": {
          "version": "1.5.7",
          "from": "type-is@~1.5.6",
          "resolved": "https://registry.npmjs.org/type-is/-/type-is-1.5.7.tgz",
          "dependencies": {
            "mime-types": {
              "version": "2.0.9",
              "from": "mime-types@~2.0.9",
              "resolved": "https://registry.npmjs.org/mime-types/-/mime-types-2.0.9.tgz",
              "dependencies": {
                "mime-db": {
                  "version": "1.7.0",
                  "from": "mime-db@~1.7.0",
                  "resolved": "https://registry.npmjs.org/mime-db/-/mime-db-1.7.0.tgz"
                }
              }
            }
          }
        },
        "vary": {
          "version": "1.0.0",
          "from": "vary@~1.0.0",
          "resolved": "https://registry.npmjs.org/vary/-/vary-1.0.0.tgz"
        },
        "cookie": {
          "version": "0.1.2",
          "from": "cookie@0.1.2",
          "resolved": "https://registry.npmjs.org/cookie/-/cookie-0.1.2.tgz"
        },
        "merge-descriptors": {
          "version": "0.0.2",
          "from": "merge-descriptors@0.0.2",
          "resolved": "https://registry.npmjs.org/merge-descriptors/-/merge-descriptors-0.0.2.tgz"
        },
        "utils-merge": {
          "version": "1.0.0",
          "from": "utils-merge@1.0.0",
          "resolved": "https://registry.npmjs.org/utils-merge/-/utils-merge-1.0.0.tgz"
        }
      }
    },
    "express-domain-middleware": {
      "version": "0.1.0",
      "from": "express-domain-middleware@^0.1.0"
    },
    "grunt": {
      "version": "0.4.5",
      "from": "grunt@",
      "resolved": "https://registry.npmjs.org/grunt/-/grunt-0.4.5.tgz",
      "dependencies": {
        "async": {
          "version": "0.1.22",
          "from": "async@~0.1.22",
          "resolved": "https://registry.npmjs.org/async/-/async-0.1.22.tgz"
        },
        "coffee-script": {
          "version": "1.3.3",
          "from": "coffee-script@~1.3.3",
          "resolved": "https://registry.npmjs.org/coffee-script/-/coffee-script-1.3.3.tgz"
        },
        "colors": {
          "version": "0.6.2",
          "from": "colors@~0.6.2",
          "resolved": "https://registry.npmjs.org/colors/-/colors-0.6.2.tgz"
        },
        "dateformat": {
          "version": "1.0.2-1.2.3",
          "from": "dateformat@1.0.2-1.2.3",
          "resolved": "https://registry.npmjs.org/dateformat/-/dateformat-1.0.2-1.2.3.tgz"
        },
        "eventemitter2": {
          "version": "0.4.14",
          "from": "eventemitter2@~0.4.13",
          "resolved": "https://registry.npmjs.org/eventemitter2/-/eventemitter2-0.4.14.tgz"
        },
        "findup-sync": {
          "version": "0.1.3",
          "from": "findup-sync@~0.1.2",
          "resolved": "https://registry.npmjs.org/findup-sync/-/findup-sync-0.1.3.tgz",
          "dependencies": {
            "glob": {
              "version": "3.2.11",
              "from": "glob@~3.2.9",
              "dependencies": {
                "inherits": {
                  "version": "2.0.1",
                  "from": "inherits@2"
                },
                "minimatch": {
                  "version": "0.3.0",
                  "from": "minimatch@0.3",
                  "dependencies": {
                    "lru-cache": {
                      "version": "2.5.0",
                      "from": "lru-cache@2"
                    },
                    "sigmund": {
                      "version": "1.0.0",
                      "from": "sigmund@~1.0.0"
                    }
                  }
                }
              }
            },
            "lodash": {
              "version": "2.4.1",
              "from": "lodash@~2.4.1"
            }
          }
        },
        "glob": {
          "version": "3.1.21",
          "from": "glob@~3.1.21",
          "dependencies": {
            "graceful-fs": {
              "version": "1.2.3",
              "from": "graceful-fs@~1.2.0"
            },
            "inherits": {
              "version": "1.0.0",
              "from": "inherits@1"
            }
          }
        },
        "hooker": {
          "version": "0.2.3",
          "from": "hooker@~0.2.3",
          "resolved": "https://registry.npmjs.org/hooker/-/hooker-0.2.3.tgz"
        },
        "iconv-lite": {
          "version": "0.2.11",
          "from": "iconv-lite@~0.2.11",
          "resolved": "https://registry.npmjs.org/iconv-lite/-/iconv-lite-0.2.11.tgz"
        },
        "minimatch": {
          "version": "0.2.14",
          "from": "minimatch@~0.2.12",
          "dependencies": {
            "lru-cache": {
              "version": "2.5.0",
              "from": "lru-cache@2"
            },
            "sigmund": {
              "version": "1.0.0",
              "from": "sigmund@~1.0.0"
            }
          }
        },
        "nopt": {
          "version": "1.0.10",
          "from": "nopt@~1.0.10",
          "resolved": "https://registry.npmjs.org/nopt/-/nopt-1.0.10.tgz",
          "dependencies": {
            "abbrev": {
              "version": "1.0.5",
              "from": "abbrev@1"
            }
          }
        },
        "rimraf": {
          "version": "2.2.8",
          "from": "rimraf@~2.2.8"
        },
        "lodash": {
          "version": "0.9.2",
          "from": "lodash@~0.9.2",
          "resolved": "https://registry.npmjs.org/lodash/-/lodash-0.9.2.tgz"
        },
        "underscore.string": {
          "version": "2.2.1",
          "from": "underscore.string@~2.2.1",
          "resolved": "https://registry.npmjs.org/underscore.string/-/underscore.string-2.2.1.tgz"
        },
        "which": {
          "version": "1.0.8",
          "from": "which@~1.0.5"
        },
        "js-yaml": {
          "version": "2.0.5",
          "from": "js-yaml@~2.0.5",
          "resolved": "https://registry.npmjs.org/js-yaml/-/js-yaml-2.0.5.tgz",
          "dependencies": {
            "argparse": {
              "version": "0.1.16",
              "from": "argparse@~ 0.1.11",
              "resolved": "https://registry.npmjs.org/argparse/-/argparse-0.1.16.tgz",
              "dependencies": {
                "underscore": {
                  "version": "1.7.0",
                  "from": "underscore@~1.7.0",
                  "resolved": "https://registry.npmjs.org/underscore/-/underscore-1.7.0.tgz"
                },
                "underscore.string": {
                  "version": "2.4.0",
                  "from": "underscore.string@~2.4.0",
                  "resolved": "https://registry.npmjs.org/underscore.string/-/underscore.string-2.4.0.tgz"
                }
              }
            },
            "esprima": {
              "version": "1.0.4",
              "from": "esprima@~ 1.0.2",
              "resolved": "https://registry.npmjs.org/esprima/-/esprima-1.0.4.tgz"
            }
          }
        },
        "exit": {
          "version": "0.1.2",
          "from": "exit@~0.1.1",
          "resolved": "https://registry.npmjs.org/exit/-/exit-0.1.2.tgz"
        },
        "getobject": {
          "version": "0.1.0",
          "from": "getobject@~0.1.0",
          "resolved": "https://registry.npmjs.org/getobject/-/getobject-0.1.0.tgz"
        },
        "grunt-legacy-util": {
          "version": "0.2.0",
          "from": "grunt-legacy-util@~0.2.0",
          "resolved": "https://registry.npmjs.org/grunt-legacy-util/-/grunt-legacy-util-0.2.0.tgz"
        },
        "grunt-legacy-log": {
          "version": "0.1.1",
          "from": "grunt-legacy-log@~0.1.0",
          "resolved": "https://registry.npmjs.org/grunt-legacy-log/-/grunt-legacy-log-0.1.1.tgz",
          "dependencies": {
            "lodash": {
              "version": "2.4.1",
              "from": "lodash@~2.4.1"
            },
            "underscore.string": {
              "version": "2.3.3",
              "from": "underscore.string@~2.3.3",
              "resolved": "https://registry.npmjs.org/underscore.string/-/underscore.string-2.3.3.tgz"
            }
          }
        }
      }
    },
    "grunt-bg-shell": {
      "version": "2.3.1",
      "from": "grunt-bg-shell@",
      "resolved": "https://registry.npmjs.org/grunt-bg-shell/-/grunt-bg-shell-2.3.1.tgz"
    },
    "grunt-deployments": {
      "version": "0.2.0",
      "from": "grunt-deployments@",
      "resolved": "https://registry.npmjs.org/grunt-deployments/-/grunt-deployments-0.2.0.tgz",
      "dependencies": {
        "shelljs": {
          "version": "0.1.4",
          "from": "shelljs@~0.1.4",
          "resolved": "https://registry.npmjs.org/shelljs/-/shelljs-0.1.4.tgz"
        }
      }
    },
    "lodash": {
      "version": "3.3.0",
      "from": "lodash@",
      "resolved": "https://registry.npmjs.org/lodash/-/lodash-3.3.0.tgz"
    },
    "multer": {
      "version": "0.1.7",
      "from": "multer@",
      "resolved": "https://registry.npmjs.org/multer/-/multer-0.1.7.tgz",
      "dependencies": {
        "busboy": {
          "version": "0.2.9",
          "from": "busboy@~0.2.9",
          "resolved": "https://registry.npmjs.org/busboy/-/busboy-0.2.9.tgz",
          "dependencies": {
            "dicer": {
              "version": "0.2.3",
              "from": "dicer@0.2.3",
              "resolved": "https://registry.npmjs.org/dicer/-/dicer-0.2.3.tgz",
              "dependencies": {
                "streamsearch": {
                  "version": "0.1.2",
                  "from": "streamsearch@0.1.2",
                  "resolved": "https://registry.npmjs.org/streamsearch/-/streamsearch-0.1.2.tgz"
                }
              }
            },
            "readable-stream": {
              "version": "1.1.13",
              "from": "readable-stream@1.1.x",
              "dependencies": {
                "core-util-is": {
                  "version": "1.0.1",
                  "from": "core-util-is@~1.0.0"
                },
                "isarray": {
                  "version": "0.0.1",
                  "from": "isarray@0.0.1"
                },
                "string_decoder": {
                  "version": "0.10.31",
                  "from": "string_decoder@~0.10.x"
                },
                "inherits": {
                  "version": "2.0.1",
                  "from": "inherits@~2.0.1"
                }
              }
            }
          }
        },
        "mkdirp": {
          "version": "0.3.5",
          "from": "mkdirp@~0.3.5"
        },
        "qs": {
          "version": "1.2.2",
          "from": "qs@~1.2.2",
          "resolved": "https://registry.npmjs.org/qs/-/qs-1.2.2.tgz"
        },
        "type-is": {
          "version": "1.5.7",
          "from": "type-is@~1.5.2",
          "dependencies": {
            "media-typer": {
              "version": "0.3.0",
              "from": "media-typer@0.3.0"
            },
            "mime-types": {
              "version": "2.0.9",
              "from": "mime-types@~2.0.9",
              "dependencies": {
                "mime-db": {
                  "version": "1.7.0",
                  "from": "mime-db@~1.7.0"
                }
              }
            }
          }
        }
      }
    },
    "mysql": {
      "version": "2.5.4",
      "from": "mysql@",
      "resolved": "https://registry.npmjs.org/mysql/-/mysql-2.5.4.tgz",
      "dependencies": {
        "bignumber.js": {
          "version": "1.4.1",
          "from": "bignumber.js@1.4.1",
          "resolved": "https://registry.npmjs.org/bignumber.js/-/bignumber.js-1.4.1.tgz"
        },
        "readable-stream": {
          "version": "1.1.13",
          "from": "readable-stream@~1.1.13",
          "resolved": "https://registry.npmjs.org/readable-stream/-/readable-stream-1.1.13.tgz",
          "dependencies": {
            "core-util-is": {
              "version": "1.0.1",
              "from": "core-util-is@~1.0.0"
            },
            "isarray": {
              "version": "0.0.1",
              "from": "isarray@0.0.1"
            },
            "string_decoder": {
              "version": "0.10.31",
              "from": "string_decoder@~0.10.x"
            },
            "inherits": {
              "version": "2.0.1",
              "from": "inherits@~2.0.1"
            }
          }
        },
        "require-all": {
          "version": "0.0.8",
          "from": "require-all@0.0.8",
          "resolved": "https://registry.npmjs.org/require-all/-/require-all-0.0.8.tgz"
        }
      }
    },
    "request": {
      "version": "2.53.0",
      "from": "request@",
      "resolved": "https://registry.npmjs.org/request/-/request-2.53.0.tgz",
      "dependencies": {
        "bl": {
          "version": "0.9.4",
          "from": "bl@~0.9.0",
          "resolved": "https://registry.npmjs.org/bl/-/bl-0.9.4.tgz",
          "dependencies": {
            "readable-stream": {
              "version": "1.0.33",
              "from": "readable-stream@~1.0.26",
              "resolved": "https://registry.npmjs.org/readable-stream/-/readable-stream-1.0.33.tgz",
              "dependencies": {
                "core-util-is": {
                  "version": "1.0.1",
                  "from": "core-util-is@~1.0.0",
                  "resolved": "https://registry.npmjs.org/core-util-is/-/core-util-is-1.0.1.tgz"
                },
                "isarray": {
                  "version": "0.0.1",
                  "from": "isarray@0.0.1",
                  "resolved": "https://registry.npmjs.org/isarray/-/isarray-0.0.1.tgz"
                },
                "string_decoder": {
                  "version": "0.10.31",
                  "from": "string_decoder@~0.10.x",
                  "resolved": "https://registry.npmjs.org/string_decoder/-/string_decoder-0.10.31.tgz"
                },
                "inherits": {
                  "version": "2.0.1",
                  "from": "inherits@~2.0.1"
                }
              }
            }
          }
        },
        "caseless": {
          "version": "0.9.0",
          "from": "caseless@~0.9.0",
          "resolved": "https://registry.npmjs.org/caseless/-/caseless-0.9.0.tgz"
        },
        "forever-agent": {
          "version": "0.5.2",
          "from": "forever-agent@~0.5.0",
          "resolved": "https://registry.npmjs.org/forever-agent/-/forever-agent-0.5.2.tgz"
        },
        "form-data": {
          "version": "0.2.0",
          "from": "form-data@~0.2.0",
          "resolved": "https://registry.npmjs.org/form-data/-/form-data-0.2.0.tgz",
          "dependencies": {
            "async": {
              "version": "0.9.0",
              "from": "async@~0.9.0"
            }
          }
        },
        "json-stringify-safe": {
          "version": "5.0.0",
          "from": "json-stringify-safe@~5.0.0",
          "resolved": "https://registry.npmjs.org/json-stringify-safe/-/json-stringify-safe-5.0.0.tgz"
        },
        "mime-types": {
          "version": "2.0.9",
          "from": "mime-types@~2.0.1",
          "resolved": "https://registry.npmjs.org/mime-types/-/mime-types-2.0.9.tgz",
          "dependencies": {
            "mime-db": {
              "version": "1.7.0",
              "from": "mime-db@~1.7.0",
              "resolved": "https://registry.npmjs.org/mime-db/-/mime-db-1.7.0.tgz"
            }
          }
        },
        "node-uuid": {
          "version": "1.4.2",
          "from": "node-uuid@~1.4.0",
          "resolved": "https://registry.npmjs.org/node-uuid/-/node-uuid-1.4.2.tgz"
        },
        "qs": {
          "version": "2.3.3",
          "from": "qs@~2.3.1",
          "resolved": "https://registry.npmjs.org/qs/-/qs-2.3.3.tgz"
        },
        "tunnel-agent": {
          "version": "0.4.0",
          "from": "tunnel-agent@~0.4.0",
          "resolved": "https://registry.npmjs.org/tunnel-agent/-/tunnel-agent-0.4.0.tgz"
        },
        "tough-cookie": {
          "version": "0.12.1",
          "from": "tough-cookie@>=0.12.0",
          "resolved": "https://registry.npmjs.org/tough-cookie/-/tough-cookie-0.12.1.tgz",
          "dependencies": {
            "punycode": {
              "version": "1.3.2",
              "from": "punycode@>=0.2.0",
              "resolved": "https://registry.npmjs.org/punycode/-/punycode-1.3.2.tgz"
            }
          }
        },
        "http-signature": {
          "version": "0.10.1",
          "from": "http-signature@~0.10.0",
          "resolved": "https://registry.npmjs.org/http-signature/-/http-signature-0.10.1.tgz",
          "dependencies": {
            "assert-plus": {
              "version": "0.1.5",
              "from": "assert-plus@^0.1.5",
              "resolved": "https://registry.npmjs.org/assert-plus/-/assert-plus-0.1.5.tgz"
            },
            "asn1": {
              "version": "0.1.11",
              "from": "asn1@0.1.11",
              "resolved": "https://registry.npmjs.org/asn1/-/asn1-0.1.11.tgz"
            },
            "ctype": {
              "version": "0.5.3",
              "from": "ctype@0.5.3",
              "resolved": "https://registry.npmjs.org/ctype/-/ctype-0.5.3.tgz"
            }
          }
        },
        "oauth-sign": {
          "version": "0.6.0",
          "from": "oauth-sign@~0.6.0",
          "resolved": "https://registry.npmjs.org/oauth-sign/-/oauth-sign-0.6.0.tgz"
        },
        "hawk": {
          "version": "2.3.1",
          "from": "hawk@~2.3.0",
          "resolved": "https://registry.npmjs.org/hawk/-/hawk-2.3.1.tgz",
          "dependencies": {
            "hoek": {
              "version": "2.11.0",
              "from": "hoek@2.x.x",
              "resolved": "https://registry.npmjs.org/hoek/-/hoek-2.11.0.tgz"
            },
            "boom": {
              "version": "2.6.1",
              "from": "boom@2.x.x",
              "resolved": "https://registry.npmjs.org/boom/-/boom-2.6.1.tgz"
            },
            "cryptiles": {
              "version": "2.0.4",
              "from": "cryptiles@2.x.x",
              "resolved": "https://registry.npmjs.org/cryptiles/-/cryptiles-2.0.4.tgz"
            },
            "sntp": {
              "version": "1.0.9",
              "from": "sntp@1.x.x",
              "resolved": "https://registry.npmjs.org/sntp/-/sntp-1.0.9.tgz"
            }
          }
        },
        "aws-sign2": {
          "version": "0.5.0",
          "from": "aws-sign2@~0.5.0",
          "resolved": "https://registry.npmjs.org/aws-sign2/-/aws-sign2-0.5.0.tgz"
        },
        "stringstream": {
          "version": "0.0.4",
          "from": "stringstream@~0.0.4",
          "resolved": "https://registry.npmjs.org/stringstream/-/stringstream-0.0.4.tgz"
        },
        "combined-stream": {
          "version": "0.0.7",
          "from": "combined-stream@~0.0.5",
          "resolved": "https://registry.npmjs.org/combined-stream/-/combined-stream-0.0.7.tgz",
          "dependencies": {
            "delayed-stream": {
              "version": "0.0.5",
              "from": "delayed-stream@0.0.5",
              "resolved": "https://registry.npmjs.org/delayed-stream/-/delayed-stream-0.0.5.tgz"
            }
          }
        },
        "isstream": {
          "version": "0.1.1",
          "from": "isstream@~0.1.1"
        }
      }
    },
    "rsvp": {
      "version": "3.0.16",
      "from": "rsvp@",
      "resolved": "https://registry.npmjs.org/rsvp/-/rsvp-3.0.16.tgz"
    },
    "sequelize": {
      "version": "2.0.2",
      "from": "sequelize@",
      "resolved": "https://registry.npmjs.org/sequelize/-/sequelize-2.0.2.tgz",
      "dependencies": {
        "bluebird": {
          "version": "2.4.2",
          "from": "bluebird@2.4.2",
          "resolved": "https://registry.npmjs.org/bluebird/-/bluebird-2.4.2.tgz"
        },
        "dottie": {
          "version": "0.2.4",
          "from": "dottie@0.2.4",
          "resolved": "https://registry.npmjs.org/dottie/-/dottie-0.2.4.tgz"
        },
        "generic-pool": {
          "version": "2.1.1",
          "from": "generic-pool@2.1.1",
          "resolved": "https://registry.npmjs.org/generic-pool/-/generic-pool-2.1.1.tgz"
        },
        "inflection": {
          "version": "1.5.3",
          "from": "inflection@1.5.3",
          "resolved": "https://registry.npmjs.org/inflection/-/inflection-1.5.3.tgz"
        },
        "lodash": {
          "version": "2.4.1",
          "from": "lodash@~2.4.0",
          "resolved": "https://registry.npmjs.org/lodash/-/lodash-2.4.1.tgz"
        },
        "moment": {
          "version": "2.9.0",
          "from": "moment@^2.9.0",
          "resolved": "https://registry.npmjs.org/moment/-/moment-2.9.0.tgz"
        },
        "node-uuid": {
          "version": "1.4.2",
          "from": "node-uuid@~1.4.1"
        },
        "toposort-class": {
          "version": "0.3.1",
          "from": "toposort-class@~0.3.0",
          "resolved": "https://registry.npmjs.org/toposort-class/-/toposort-class-0.3.1.tgz"
        },
        "validator": {
          "version": "3.22.2",
          "from": "validator@~3.22.1",
          "resolved": "https://registry.npmjs.org/validator/-/validator-3.22.2.tgz"
        }
      }
    },
    "sequelize-cli": {
      "version": "1.3.0",
      "from": "sequelize-cli@",
      "resolved": "https://registry.npmjs.org/sequelize-cli/-/sequelize-cli-1.3.0.tgz",
      "dependencies": {
        "bluebird": {
          "version": "2.9.9",
          "from": "bluebird@^2.3.11",
          "resolved": "https://registry.npmjs.org/bluebird/-/bluebird-2.9.9.tgz"
        },
        "cli-color": {
          "version": "0.3.2",
          "from": "cli-color@~0.3.2",
          "resolved": "https://registry.npmjs.org/cli-color/-/cli-color-0.3.2.tgz",
          "dependencies": {
            "d": {
              "version": "0.1.1",
              "from": "d@~0.1.1",
              "resolved": "https://registry.npmjs.org/d/-/d-0.1.1.tgz"
            },
            "es5-ext": {
              "version": "0.10.6",
              "from": "es5-ext@~0.10.2",
              "resolved": "https://registry.npmjs.org/es5-ext/-/es5-ext-0.10.6.tgz",
              "dependencies": {
                "es6-iterator": {
                  "version": "0.1.3",
                  "from": "es6-iterator@~0.1.3",
                  "resolved": "https://registry.npmjs.org/es6-iterator/-/es6-iterator-0.1.3.tgz"
                },
                "es6-symbol": {
                  "version": "2.0.1",
                  "from": "es6-symbol@~2.0.1",
                  "resolved": "https://registry.npmjs.org/es6-symbol/-/es6-symbol-2.0.1.tgz"
                }
              }
            },
            "memoizee": {
              "version": "0.3.8",
              "from": "memoizee@0.3.x",
              "resolved": "https://registry.npmjs.org/memoizee/-/memoizee-0.3.8.tgz",
              "dependencies": {
                "es6-weak-map": {
                  "version": "0.1.2",
                  "from": "es6-weak-map@~0.1.2",
                  "resolved": "https://registry.npmjs.org/es6-weak-map/-/es6-weak-map-0.1.2.tgz",
                  "dependencies": {
                    "es6-iterator": {
                      "version": "0.1.3",
                      "from": "es6-iterator@~0.1.1",
                      "resolved": "https://registry.npmjs.org/es6-iterator/-/es6-iterator-0.1.3.tgz",
                      "dependencies": {
                        "es6-symbol": {
                          "version": "2.0.1",
                          "from": "es6-symbol@~2.0.1",
                          "resolved": "https://registry.npmjs.org/es6-symbol/-/es6-symbol-2.0.1.tgz"
                        }
                      }
                    },
                    "es6-symbol": {
                      "version": "0.1.1",
                      "from": "es6-symbol@0.1.x",
                      "resolved": "https://registry.npmjs.org/es6-symbol/-/es6-symbol-0.1.1.tgz"
                    }
                  }
                },
                "event-emitter": {
                  "version": "0.3.3",
                  "from": "event-emitter@~0.3.1",
                  "resolved": "https://registry.npmjs.org/event-emitter/-/event-emitter-0.3.3.tgz"
                },
                "lru-queue": {
                  "version": "0.1.0",
                  "from": "lru-queue@0.1",
                  "resolved": "https://registry.npmjs.org/lru-queue/-/lru-queue-0.1.0.tgz"
                },
                "next-tick": {
                  "version": "0.2.2",
                  "from": "next-tick@~0.2.2",
                  "resolved": "https://registry.npmjs.org/next-tick/-/next-tick-0.2.2.tgz"
                }
              }
            },
            "timers-ext": {
              "version": "0.1.0",
              "from": "timers-ext@0.1.x",
              "resolved": "https://registry.npmjs.org/timers-ext/-/timers-ext-0.1.0.tgz",
              "dependencies": {
                "next-tick": {
                  "version": "0.2.2",
                  "from": "next-tick@~0.2.2",
                  "resolved": "https://registry.npmjs.org/next-tick/-/next-tick-0.2.2.tgz"
                }
              }
            }
          }
        },
        "findup-sync": {
          "version": "0.2.1",
          "from": "findup-sync@^0.2.1",
          "resolved": "https://registry.npmjs.org/findup-sync/-/findup-sync-0.2.1.tgz",
          "dependencies": {
            "glob": {
              "version": "4.3.5",
              "from": "glob@~4.3.0",
              "dependencies": {
                "inflight": {
                  "version": "1.0.4",
                  "from": "inflight@^1.0.4",
                  "dependencies": {
                    "wrappy": {
                      "version": "1.0.1",
                      "from": "wrappy@1"
                    }
                  }
                },
                "inherits": {
                  "version": "2.0.1",
                  "from": "inherits@2"
                },
                "minimatch": {
                  "version": "2.0.1",
                  "from": "minimatch@^2.0.1",
                  "dependencies": {
                    "brace-expansion": {
                      "version": "1.1.0",
                      "from": "brace-expansion@^1.0.0",
                      "dependencies": {
                        "balanced-match": {
                          "version": "0.2.0",
                          "from": "balanced-match@^0.2.0"
                        },
                        "concat-map": {
                          "version": "0.0.1",
                          "from": "concat-map@0.0.1"
                        }
                      }
                    }
                  }
                },
                "once": {
                  "version": "1.3.1",
                  "from": "once@^1.3.0",
                  "dependencies": {
                    "wrappy": {
                      "version": "1.0.1",
                      "from": "wrappy@1"
                    }
                  }
                }
              }
            }
          }
        },
        "fs-extra": {
          "version": "0.16.3",
          "from": "fs-extra@^0.16.3",
          "resolved": "https://registry.npmjs.org/fs-extra/-/fs-extra-0.16.3.tgz",
          "dependencies": {
            "graceful-fs": {
              "version": "3.0.5",
              "from": "graceful-fs@^3.0.5",
              "resolved": "https://registry.npmjs.org/graceful-fs/-/graceful-fs-3.0.5.tgz"
            },
            "jsonfile": {
              "version": "2.0.0",
              "from": "jsonfile@^2.0.0",
              "resolved": "https://registry.npmjs.org/jsonfile/-/jsonfile-2.0.0.tgz"
            },
            "rimraf": {
              "version": "2.2.8",
              "from": "rimraf@^2.2.8"
            }
          }
        },
        "gulp": {
          "version": "3.8.11",
          "from": "gulp@^3.8.10",
          "resolved": "https://registry.npmjs.org/gulp/-/gulp-3.8.11.tgz",
          "dependencies": {
            "archy": {
              "version": "1.0.0",
              "from": "archy@^1.0.0",
              "resolved": "https://registry.npmjs.org/archy/-/archy-1.0.0.tgz"
            },
            "chalk": {
              "version": "0.5.1",
              "from": "chalk@^0.5.0",
              "resolved": "https://registry.npmjs.org/chalk/-/chalk-0.5.1.tgz",
              "dependencies": {
                "ansi-styles": {
                  "version": "1.1.0",
                  "from": "ansi-styles@^1.1.0",
                  "resolved": "https://registry.npmjs.org/ansi-styles/-/ansi-styles-1.1.0.tgz"
                },
                "escape-string-regexp": {
                  "version": "1.0.2",
                  "from": "escape-string-regexp@^1.0.0",
                  "resolved": "https://registry.npmjs.org/escape-string-regexp/-/escape-string-regexp-1.0.2.tgz"
                },
                "has-ansi": {
                  "version": "0.1.0",
                  "from": "has-ansi@^0.1.0",
                  "resolved": "https://registry.npmjs.org/has-ansi/-/has-ansi-0.1.0.tgz",
                  "dependencies": {
                    "ansi-regex": {
                      "version": "0.2.1",
                      "from": "ansi-regex@^0.2.0",
                      "resolved": "https://registry.npmjs.org/ansi-regex/-/ansi-regex-0.2.1.tgz"
                    }
                  }
                },
                "strip-ansi": {
                  "version": "0.3.0",
                  "from": "strip-ansi@^0.3.0",
                  "resolved": "https://registry.npmjs.org/strip-ansi/-/strip-ansi-0.3.0.tgz",
                  "dependencies": {
                    "ansi-regex": {
                      "version": "0.2.1",
                      "from": "ansi-regex@^0.2.0",
                      "resolved": "https://registry.npmjs.org/ansi-regex/-/ansi-regex-0.2.1.tgz"
                    }
                  }
                },
                "supports-color": {
                  "version": "0.2.0",
                  "from": "supports-color@^0.2.0",
                  "resolved": "https://registry.npmjs.org/supports-color/-/supports-color-0.2.0.tgz"
                }
              }
            },
            "deprecated": {
              "version": "0.0.1",
              "from": "deprecated@^0.0.1",
              "resolved": "https://registry.npmjs.org/deprecated/-/deprecated-0.0.1.tgz"
            },
            "gulp-util": {
              "version": "3.0.3",
              "from": "gulp-util@^3.0.3",
              "resolved": "https://registry.npmjs.org/gulp-util/-/gulp-util-3.0.3.tgz",
              "dependencies": {
                "array-differ": {
                  "version": "1.0.0",
                  "from": "array-differ@^1.0.0",
                  "resolved": "https://registry.npmjs.org/array-differ/-/array-differ-1.0.0.tgz"
                },
                "array-uniq": {
                  "version": "1.0.2",
                  "from": "array-uniq@^1.0.2",
                  "resolved": "https://registry.npmjs.org/array-uniq/-/array-uniq-1.0.2.tgz"
                },
                "beeper": {
                  "version": "1.0.0",
                  "from": "beeper@^1.0.0",
                  "resolved": "https://registry.npmjs.org/beeper/-/beeper-1.0.0.tgz"
                },
                "dateformat": {
                  "version": "1.0.11",
                  "from": "dateformat@^1.0.11",
                  "resolved": "https://registry.npmjs.org/dateformat/-/dateformat-1.0.11.tgz",
                  "dependencies": {
                    "get-stdin": {
                      "version": "4.0.1",
                      "from": "get-stdin@*",
                      "resolved": "https://registry.npmjs.org/get-stdin/-/get-stdin-4.0.1.tgz"
                    },
                    "meow": {
                      "version": "3.0.0",
                      "from": "meow@*",
                      "resolved": "https://registry.npmjs.org/meow/-/meow-3.0.0.tgz",
                      "dependencies": {
                        "camelcase-keys": {
                          "version": "1.0.0",
                          "from": "camelcase-keys@^1.0.0",
                          "resolved": "https://registry.npmjs.org/camelcase-keys/-/camelcase-keys-1.0.0.tgz",
                          "dependencies": {
                            "camelcase": {
                              "version": "1.0.2",
                              "from": "camelcase@^1.0.1",
                              "resolved": "https://registry.npmjs.org/camelcase/-/camelcase-1.0.2.tgz"
                            },
                            "map-obj": {
                              "version": "1.0.0",
                              "from": "map-obj@^1.0.0",
                              "resolved": "https://registry.npmjs.org/map-obj/-/map-obj-1.0.0.tgz"
                            }
                          }
                        },
                        "indent-string": {
                          "version": "1.2.1",
                          "from": "indent-string@^1.1.0",
                          "resolved": "https://registry.npmjs.org/indent-string/-/indent-string-1.2.1.tgz",
                          "dependencies": {
                            "repeating": {
                              "version": "1.1.2",
                              "from": "repeating@^1.1.0",
                              "resolved": "https://registry.npmjs.org/repeating/-/repeating-1.1.2.tgz",
                              "dependencies": {
                                "is-finite": {
                                  "version": "1.0.0",
                                  "from": "is-finite@^1.0.0",
                                  "resolved": "https://registry.npmjs.org/is-finite/-/is-finite-1.0.0.tgz"
                                }
                              }
                            }
                          }
                        }
                      }
                    }
                  }
                },
                "lodash.reescape": {
                  "version": "3.0.1",
                  "from": "lodash.reescape@^3.0.0",
                  "resolved": "https://registry.npmjs.org/lodash.reescape/-/lodash.reescape-3.0.1.tgz",
                  "dependencies": {
                    "lodash._reescape": {
                      "version": "3.0.0",
                      "from": "lodash._reescape@^3.0.0",
                      "resolved": "https://registry.npmjs.org/lodash._reescape/-/lodash._reescape-3.0.0.tgz"
                    }
                  }
                },
                "lodash.reevaluate": {
                  "version": "3.0.1",
                  "from": "lodash.reevaluate@^3.0.0",
                  "resolved": "https://registry.npmjs.org/lodash.reevaluate/-/lodash.reevaluate-3.0.1.tgz",
                  "dependencies": {
                    "lodash._reevaluate": {
                      "version": "3.0.0",
                      "from": "lodash._reevaluate@^3.0.0",
                      "resolved": "https://registry.npmjs.org/lodash._reevaluate/-/lodash._reevaluate-3.0.0.tgz"
                    }
                  }
                },
                "lodash.reinterpolate": {
                  "version": "3.0.1",
                  "from": "lodash.reinterpolate@^3.0.0",
                  "resolved": "https://registry.npmjs.org/lodash.reinterpolate/-/lodash.reinterpolate-3.0.1.tgz",
                  "dependencies": {
                    "lodash._reinterpolate": {
                      "version": "3.0.0",
                      "from": "lodash._reinterpolate@^3.0.0",
                      "resolved": "https://registry.npmjs.org/lodash._reinterpolate/-/lodash._reinterpolate-3.0.0.tgz"
                    }
                  }
                },
                "lodash.template": {
                  "version": "3.2.0",
                  "from": "lodash.template@^3.0.0",
                  "resolved": "https://registry.npmjs.org/lodash.template/-/lodash.template-3.2.0.tgz",
                  "dependencies": {
                    "lodash._basecopy": {
                      "version": "3.0.0",
                      "from": "lodash._basecopy@^3.0.0",
                      "resolved": "https://registry.npmjs.org/lodash._basecopy/-/lodash._basecopy-3.0.0.tgz"
                    },
                    "lodash._baseslice": {
                      "version": "3.0.1",
                      "from": "lodash._baseslice@^3.0.0",
                      "resolved": "https://registry.npmjs.org/lodash._baseslice/-/lodash._baseslice-3.0.1.tgz"
                    },
                    "lodash._basevalues": {
                      "version": "3.0.0",
                      "from": "lodash._basevalues@^3.0.0",
                      "resolved": "https://registry.npmjs.org/lodash._basevalues/-/lodash._basevalues-3.0.0.tgz"
                    },
                    "lodash._isiterateecall": {
                      "version": "3.0.1",
                      "from": "lodash._isiterateecall@^3.0.0",
                      "resolved": "https://registry.npmjs.org/lodash._isiterateecall/-/lodash._isiterateecall-3.0.1.tgz"
                    },
                    "lodash._reinterpolate": {
                      "version": "3.0.0",
                      "from": "lodash._reinterpolate@^3.0.0",
                      "resolved": "https://registry.npmjs.org/lodash._reinterpolate/-/lodash._reinterpolate-3.0.0.tgz"
                    },
                    "lodash.keys": {
                      "version": "3.0.3",
                      "from": "lodash.keys@^3.0.0",
                      "resolved": "https://registry.npmjs.org/lodash.keys/-/lodash.keys-3.0.3.tgz",
                      "dependencies": {
                        "lodash.isarguments": {
                          "version": "3.0.0",
                          "from": "lodash.isarguments@^3.0.0",
                          "resolved": "https://registry.npmjs.org/lodash.isarguments/-/lodash.isarguments-3.0.0.tgz"
                        },
                        "lodash.isarray": {
                          "version": "3.0.0",
                          "from": "lodash.isarray@^3.0.0",
                          "resolved": "https://registry.npmjs.org/lodash.isarray/-/lodash.isarray-3.0.0.tgz"
                        },
                        "lodash.isnative": {
                          "version": "3.0.0",
                          "from": "lodash.isnative@^3.0.0",
                          "resolved": "https://registry.npmjs.org/lodash.isnative/-/lodash.isnative-3.0.0.tgz"
                        }
                      }
                    },
                    "lodash.templatesettings": {
                      "version": "3.0.1",
                      "from": "lodash.templatesettings@^3.0.0",
                      "resolved": "https://registry.npmjs.org/lodash.templatesettings/-/lodash.templatesettings-3.0.1.tgz",
                      "dependencies": {
                        "lodash._reescape": {
                          "version": "3.0.0",
                          "from": "lodash._reescape@^3.0.0",
                          "resolved": "https://registry.npmjs.org/lodash._reescape/-/lodash._reescape-3.0.0.tgz"
                        },
                        "lodash._reevaluate": {
                          "version": "3.0.0",
                          "from": "lodash._reevaluate@^3.0.0",
                          "resolved": "https://registry.npmjs.org/lodash._reevaluate/-/lodash._reevaluate-3.0.0.tgz"
                        },
                        "lodash.escape": {
                          "version": "3.0.0",
                          "from": "lodash.escape@^3.0.0",
                          "resolved": "https://registry.npmjs.org/lodash.escape/-/lodash.escape-3.0.0.tgz",
                          "dependencies": {
                            "lodash._basetostring": {
                              "version": "3.0.0",
                              "from": "lodash._basetostring@^3.0.0",
                              "resolved": "https://registry.npmjs.org/lodash._basetostring/-/lodash._basetostring-3.0.0.tgz"
                            }
                          }
                        }
                      }
                    }
                  }
                },
                "multipipe": {
                  "version": "0.1.2",
                  "from": "multipipe@^0.1.2",
                  "resolved": "https://registry.npmjs.org/multipipe/-/multipipe-0.1.2.tgz",
                  "dependencies": {
                    "duplexer2": {
                      "version": "0.0.2",
                      "from": "duplexer2@0.0.2",
                      "resolved": "https://registry.npmjs.org/duplexer2/-/duplexer2-0.0.2.tgz",
                      "dependencies": {
                        "readable-stream": {
                          "version": "1.1.13",
                          "from": "readable-stream@~1.1.9",
                          "resolved": "https://registry.npmjs.org/readable-stream/-/readable-stream-1.1.13.tgz",
                          "dependencies": {
                            "core-util-is": {
                              "version": "1.0.1",
                              "from": "core-util-is@~1.0.0"
                            },
                            "isarray": {
                              "version": "0.0.1",
                              "from": "isarray@0.0.1"
                            },
                            "string_decoder": {
                              "version": "0.10.31",
                              "from": "string_decoder@~0.10.x"
                            },
                            "inherits": {
                              "version": "2.0.1",
                              "from": "inherits@~2.0.1"
                            }
                          }
                        }
                      }
                    }
                  }
                },
                "object-assign": {
                  "version": "2.0.0",
                  "from": "object-assign@^2.0.0",
                  "resolved": "https://registry.npmjs.org/object-assign/-/object-assign-2.0.0.tgz"
                },
                "replace-ext": {
                  "version": "0.0.1",
                  "from": "replace-ext@0.0.1",
                  "resolved": "https://registry.npmjs.org/replace-ext/-/replace-ext-0.0.1.tgz"
                },
                "through2": {
                  "version": "0.6.3",
                  "from": "through2@^0.6.1",
                  "resolved": "https://registry.npmjs.org/through2/-/through2-0.6.3.tgz",
                  "dependencies": {
                    "readable-stream": {
                      "version": "1.0.33",
                      "from": "readable-stream@>=1.0.33-1 <1.1.0-0",
                      "dependencies": {
                        "core-util-is": {
                          "version": "1.0.1",
                          "from": "core-util-is@~1.0.0"
                        },
                        "isarray": {
                          "version": "0.0.1",
                          "from": "isarray@0.0.1"
                        },
                        "string_decoder": {
                          "version": "0.10.31",
                          "from": "string_decoder@~0.10.x"
                        },
                        "inherits": {
                          "version": "2.0.1",
                          "from": "inherits@~2.0.1"
                        }
                      }
                    },
                    "xtend": {
                      "version": "4.0.0",
                      "from": "xtend@>=4.0.0 <4.1.0-0",
                      "resolved": "https://registry.npmjs.org/xtend/-/xtend-4.0.0.tgz"
                    }
                  }
                },
                "vinyl": {
                  "version": "0.4.6",
                  "from": "vinyl@^0.4.0",
                  "resolved": "https://registry.npmjs.org/vinyl/-/vinyl-0.4.6.tgz",
                  "dependencies": {
                    "clone": {
                      "version": "0.2.0",
                      "from": "clone@^0.2.0",
                      "resolved": "https://registry.npmjs.org/clone/-/clone-0.2.0.tgz"
                    },
                    "clone-stats": {
                      "version": "0.0.1",
                      "from": "clone-stats@^0.0.1",
                      "resolved": "https://registry.npmjs.org/clone-stats/-/clone-stats-0.0.1.tgz"
                    }
                  }
                }
              }
            },
            "interpret": {
              "version": "0.3.10",
              "from": "interpret@^0.3.2",
              "resolved": "https://registry.npmjs.org/interpret/-/interpret-0.3.10.tgz"
            },
            "liftoff": {
              "version": "2.0.1",
              "from": "liftoff@^2.0.1",
              "resolved": "https://registry.npmjs.org/liftoff/-/liftoff-2.0.1.tgz",
              "dependencies": {
                "extend": {
                  "version": "1.3.0",
                  "from": "extend@~1.3.0",
                  "resolved": "https://registry.npmjs.org/extend/-/extend-1.3.0.tgz"
                },
                "flagged-respawn": {
                  "version": "0.3.1",
                  "from": "flagged-respawn@~0.3.0",
                  "resolved": "https://registry.npmjs.org/flagged-respawn/-/flagged-respawn-0.3.1.tgz"
                },
                "resolve": {
                  "version": "1.0.0",
                  "from": "resolve@~1.0.0",
                  "resolved": "https://registry.npmjs.org/resolve/-/resolve-1.0.0.tgz"
                }
              }
            },
            "minimist": {
              "version": "1.1.0",
              "from": "minimist@^1.1.0",
              "resolved": "https://registry.npmjs.org/minimist/-/minimist-1.1.0.tgz"
            },
            "orchestrator": {
              "version": "0.3.7",
              "from": "orchestrator@^0.3.0",
              "resolved": "https://registry.npmjs.org/orchestrator/-/orchestrator-0.3.7.tgz",
              "dependencies": {
                "end-of-stream": {
                  "version": "0.1.5",
                  "from": "end-of-stream@~0.1.5",
                  "resolved": "https://registry.npmjs.org/end-of-stream/-/end-of-stream-0.1.5.tgz",
                  "dependencies": {
                    "once": {
                      "version": "1.3.1",
                      "from": "once@~1.3.0",
                      "dependencies": {
                        "wrappy": {
                          "version": "1.0.1",
                          "from": "wrappy@1"
                        }
                      }
                    }
                  }
                },
                "sequencify": {
                  "version": "0.0.7",
                  "from": "sequencify@~0.0.7",
                  "resolved": "https://registry.npmjs.org/sequencify/-/sequencify-0.0.7.tgz"
                },
                "stream-consume": {
                  "version": "0.1.0",
                  "from": "stream-consume@~0.1.0",
                  "resolved": "https://registry.npmjs.org/stream-consume/-/stream-consume-0.1.0.tgz"
                }
              }
            },
            "pretty-hrtime": {
              "version": "0.2.2",
              "from": "pretty-hrtime@^0.2.0",
              "resolved": "https://registry.npmjs.org/pretty-hrtime/-/pretty-hrtime-0.2.2.tgz"
            },
            "semver": {
              "version": "4.3.0",
              "from": "semver@^4.1.0"
            },
            "tildify": {
              "version": "1.0.0",
              "from": "tildify@^1.0.0",
              "resolved": "https://registry.npmjs.org/tildify/-/tildify-1.0.0.tgz",
              "dependencies": {
                "user-home": {
                  "version": "1.1.1",
                  "from": "user-home@^1.0.0",
                  "resolved": "https://registry.npmjs.org/user-home/-/user-home-1.1.1.tgz"
                }
              }
            },
            "v8flags": {
              "version": "2.0.2",
              "from": "v8flags@^2.0.2",
              "resolved": "https://registry.npmjs.org/v8flags/-/v8flags-2.0.2.tgz"
            },
            "vinyl-fs": {
              "version": "0.3.13",
              "from": "vinyl-fs@^0.3.0",
              "resolved": "https://registry.npmjs.org/vinyl-fs/-/vinyl-fs-0.3.13.tgz",
              "dependencies": {
                "defaults": {
                  "version": "1.0.0",
                  "from": "defaults@^1.0.0",
                  "resolved": "https://registry.npmjs.org/defaults/-/defaults-1.0.0.tgz",
                  "dependencies": {
                    "clone": {
                      "version": "0.1.19",
                      "from": "clone@~0.1.5",
                      "resolved": "https://registry.npmjs.org/clone/-/clone-0.1.19.tgz"
                    }
                  }
                },
                "glob-stream": {
                  "version": "3.1.18",
                  "from": "glob-stream@^3.1.5",
                  "resolved": "https://registry.npmjs.org/glob-stream/-/glob-stream-3.1.18.tgz",
                  "dependencies": {
                    "glob": {
                      "version": "4.3.5",
                      "from": "glob@^4.3.1",
                      "dependencies": {
                        "inflight": {
                          "version": "1.0.4",
                          "from": "inflight@^1.0.4",
                          "dependencies": {
                            "wrappy": {
                              "version": "1.0.1",
                              "from": "wrappy@1"
                            }
                          }
                        },
                        "inherits": {
                          "version": "2.0.1",
                          "from": "inherits@2"
                        },
                        "once": {
                          "version": "1.3.1",
                          "from": "once@^1.3.0",
                          "dependencies": {
                            "wrappy": {
                              "version": "1.0.1",
                              "from": "wrappy@1"
                            }
                          }
                        }
                      }
                    },
                    "minimatch": {
                      "version": "2.0.1",
                      "from": "minimatch@^2.0.1",
                      "dependencies": {
                        "brace-expansion": {
                          "version": "1.1.0",
                          "from": "brace-expansion@^1.0.0",
                          "dependencies": {
                            "balanced-match": {
                              "version": "0.2.0",
                              "from": "balanced-match@^0.2.0"
                            },
                            "concat-map": {
                              "version": "0.0.1",
                              "from": "concat-map@0.0.1"
                            }
                          }
                        }
                      }
                    },
                    "ordered-read-streams": {
                      "version": "0.1.0",
                      "from": "ordered-read-streams@^0.1.0",
                      "resolved": "https://registry.npmjs.org/ordered-read-streams/-/ordered-read-streams-0.1.0.tgz"
                    },
                    "glob2base": {
                      "version": "0.0.12",
                      "from": "glob2base@^0.0.12",
                      "resolved": "https://registry.npmjs.org/glob2base/-/glob2base-0.0.12.tgz",
                      "dependencies": {
                        "find-index": {
                          "version": "0.1.1",
                          "from": "find-index@^0.1.1",
                          "resolved": "https://registry.npmjs.org/find-index/-/find-index-0.1.1.tgz"
                        }
                      }
                    },
                    "unique-stream": {
                      "version": "1.0.0",
                      "from": "unique-stream@^1.0.0",
                      "resolved": "https://registry.npmjs.org/unique-stream/-/unique-stream-1.0.0.tgz"
                    }
                  }
                },
                "glob-watcher": {
                  "version": "0.0.6",
                  "from": "glob-watcher@^0.0.6",
                  "resolved": "https://registry.npmjs.org/glob-watcher/-/glob-watcher-0.0.6.tgz",
                  "dependencies": {
                    "gaze": {
                      "version": "0.5.1",
                      "from": "gaze@^0.5.1",
                      "resolved": "https://registry.npmjs.org/gaze/-/gaze-0.5.1.tgz",
                      "dependencies": {
                        "globule": {
                          "version": "0.1.0",
                          "from": "globule@~0.1.0",
                          "resolved": "https://registry.npmjs.org/globule/-/globule-0.1.0.tgz",
                          "dependencies": {
                            "lodash": {
                              "version": "1.0.1",
                              "from": "lodash@~1.0.1",
                              "resolved": "https://registry.npmjs.org/lodash/-/lodash-1.0.1.tgz"
                            },
                            "glob": {
                              "version": "3.1.21",
                              "from": "glob@~3.1.21",
                              "resolved": "https://registry.npmjs.org/glob/-/glob-3.1.21.tgz",
                              "dependencies": {
                                "graceful-fs": {
                                  "version": "1.2.3",
                                  "from": "graceful-fs@~1.2.0",
                                  "resolved": "https://registry.npmjs.org/graceful-fs/-/graceful-fs-1.2.3.tgz"
                                },
                                "inherits": {
                                  "version": "1.0.0",
                                  "from": "inherits@1",
                                  "resolved": "https://registry.npmjs.org/inherits/-/inherits-1.0.0.tgz"
                                }
                              }
                            },
                            "minimatch": {
                              "version": "0.2.14",
                              "from": "minimatch@~0.2.11",
                              "dependencies": {
                                "lru-cache": {
                                  "version": "2.5.0",
                                  "from": "lru-cache@2"
                                },
                                "sigmund": {
                                  "version": "1.0.0",
                                  "from": "sigmund@~1.0.0"
                                }
                              }
                            }
                          }
                        }
                      }
                    }
                  }
                },
                "graceful-fs": {
                  "version": "3.0.5",
                  "from": "graceful-fs@^3.0.0",
                  "resolved": "https://registry.npmjs.org/graceful-fs/-/graceful-fs-3.0.5.tgz"
                },
                "mkdirp": {
                  "version": "0.5.0",
                  "from": "mkdirp@^0.5.0",
                  "resolved": "https://registry.npmjs.org/mkdirp/-/mkdirp-0.5.0.tgz",
                  "dependencies": {
                    "minimist": {
                      "version": "0.0.8",
                      "from": "minimist@0.0.8",
                      "resolved": "https://registry.npmjs.org/minimist/-/minimist-0.0.8.tgz"
                    }
                  }
                },
                "strip-bom": {
                  "version": "1.0.0",
                  "from": "strip-bom@^1.0.0",
                  "resolved": "https://registry.npmjs.org/strip-bom/-/strip-bom-1.0.0.tgz",
                  "dependencies": {
                    "first-chunk-stream": {
                      "version": "1.0.0",
                      "from": "first-chunk-stream@^1.0.0",
                      "resolved": "https://registry.npmjs.org/first-chunk-stream/-/first-chunk-stream-1.0.0.tgz"
                    },
                    "is-utf8": {
                      "version": "0.2.0",
                      "from": "is-utf8@^0.2.0",
                      "resolved": "https://registry.npmjs.org/is-utf8/-/is-utf8-0.2.0.tgz"
                    }
                  }
                },
                "through2": {
                  "version": "0.6.3",
                  "from": "through2@^0.6.1",
                  "resolved": "https://registry.npmjs.org/through2/-/through2-0.6.3.tgz",
                  "dependencies": {
                    "readable-stream": {
                      "version": "1.0.33",
                      "from": "readable-stream@>=1.0.33-1 <1.1.0-0",
                      "dependencies": {
                        "core-util-is": {
                          "version": "1.0.1",
                          "from": "core-util-is@~1.0.0"
                        },
                        "isarray": {
                          "version": "0.0.1",
                          "from": "isarray@0.0.1"
                        },
                        "string_decoder": {
                          "version": "0.10.31",
                          "from": "string_decoder@~0.10.x"
                        },
                        "inherits": {
                          "version": "2.0.1",
                          "from": "inherits@~2.0.1"
                        }
                      }
                    },
                    "xtend": {
                      "version": "4.0.0",
                      "from": "xtend@>=4.0.0 <4.1.0-0",
                      "resolved": "https://registry.npmjs.org/xtend/-/xtend-4.0.0.tgz"
                    }
                  }
                },
                "vinyl": {
                  "version": "0.4.6",
                  "from": "vinyl@^0.4.0",
                  "resolved": "https://registry.npmjs.org/vinyl/-/vinyl-0.4.6.tgz",
                  "dependencies": {
                    "clone": {
                      "version": "0.2.0",
                      "from": "clone@^0.2.0",
                      "resolved": "https://registry.npmjs.org/clone/-/clone-0.2.0.tgz"
                    },
                    "clone-stats": {
                      "version": "0.0.1",
                      "from": "clone-stats@^0.0.1",
                      "resolved": "https://registry.npmjs.org/clone-stats/-/clone-stats-0.0.1.tgz"
                    }
                  }
                }
              }
            }
          }
        },
        "gulp-help": {
          "version": "1.3.3",
          "from": "gulp-help@~1.3.1",
          "resolved": "https://registry.npmjs.org/gulp-help/-/gulp-help-1.3.3.tgz",
          "dependencies": {
            "gulp-util": {
              "version": "3.0.3",
              "from": "gulp-util@^3.0.3",
              "resolved": "https://registry.npmjs.org/gulp-util/-/gulp-util-3.0.3.tgz",
              "dependencies": {
                "array-differ": {
                  "version": "1.0.0",
                  "from": "array-differ@^1.0.0",
                  "resolved": "https://registry.npmjs.org/array-differ/-/array-differ-1.0.0.tgz"
                },
                "array-uniq": {
                  "version": "1.0.2",
                  "from": "array-uniq@^1.0.2",
                  "resolved": "https://registry.npmjs.org/array-uniq/-/array-uniq-1.0.2.tgz"
                },
                "beeper": {
                  "version": "1.0.0",
                  "from": "beeper@^1.0.0",
                  "resolved": "https://registry.npmjs.org/beeper/-/beeper-1.0.0.tgz"
                },
                "chalk": {
                  "version": "0.5.1",
                  "from": "chalk@^0.5.1",
                  "resolved": "https://registry.npmjs.org/chalk/-/chalk-0.5.1.tgz",
                  "dependencies": {
                    "ansi-styles": {
                      "version": "1.1.0",
                      "from": "ansi-styles@^1.1.0",
                      "resolved": "https://registry.npmjs.org/ansi-styles/-/ansi-styles-1.1.0.tgz"
                    },
                    "escape-string-regexp": {
                      "version": "1.0.2",
                      "from": "escape-string-regexp@^1.0.0",
                      "resolved": "https://registry.npmjs.org/escape-string-regexp/-/escape-string-regexp-1.0.2.tgz"
                    },
                    "has-ansi": {
                      "version": "0.1.0",
                      "from": "has-ansi@^0.1.0",
                      "resolved": "https://registry.npmjs.org/has-ansi/-/has-ansi-0.1.0.tgz",
                      "dependencies": {
                        "ansi-regex": {
                          "version": "0.2.1",
                          "from": "ansi-regex@^0.2.0",
                          "resolved": "https://registry.npmjs.org/ansi-regex/-/ansi-regex-0.2.1.tgz"
                        }
                      }
                    },
                    "strip-ansi": {
                      "version": "0.3.0",
                      "from": "strip-ansi@^0.3.0",
                      "resolved": "https://registry.npmjs.org/strip-ansi/-/strip-ansi-0.3.0.tgz",
                      "dependencies": {
                        "ansi-regex": {
                          "version": "0.2.1",
                          "from": "ansi-regex@^0.2.0",
                          "resolved": "https://registry.npmjs.org/ansi-regex/-/ansi-regex-0.2.1.tgz"
                        }
                      }
                    },
                    "supports-color": {
                      "version": "0.2.0",
                      "from": "supports-color@^0.2.0",
                      "resolved": "https://registry.npmjs.org/supports-color/-/supports-color-0.2.0.tgz"
                    }
                  }
                },
                "dateformat": {
                  "version": "1.0.11",
                  "from": "dateformat@^1.0.11",
                  "resolved": "https://registry.npmjs.org/dateformat/-/dateformat-1.0.11.tgz",
                  "dependencies": {
                    "get-stdin": {
                      "version": "4.0.1",
                      "from": "get-stdin@*",
                      "resolved": "https://registry.npmjs.org/get-stdin/-/get-stdin-4.0.1.tgz"
                    },
                    "meow": {
                      "version": "3.0.0",
                      "from": "meow@*",
                      "resolved": "https://registry.npmjs.org/meow/-/meow-3.0.0.tgz",
                      "dependencies": {
                        "camelcase-keys": {
                          "version": "1.0.0",
                          "from": "camelcase-keys@^1.0.0",
                          "resolved": "https://registry.npmjs.org/camelcase-keys/-/camelcase-keys-1.0.0.tgz",
                          "dependencies": {
                            "camelcase": {
                              "version": "1.0.2",
                              "from": "camelcase@^1.0.1",
                              "resolved": "https://registry.npmjs.org/camelcase/-/camelcase-1.0.2.tgz"
                            },
                            "map-obj": {
                              "version": "1.0.0",
                              "from": "map-obj@^1.0.0",
                              "resolved": "https://registry.npmjs.org/map-obj/-/map-obj-1.0.0.tgz"
                            }
                          }
                        },
                        "indent-string": {
                          "version": "1.2.1",
                          "from": "indent-string@^1.1.0",
                          "resolved": "https://registry.npmjs.org/indent-string/-/indent-string-1.2.1.tgz",
                          "dependencies": {
                            "repeating": {
                              "version": "1.1.2",
                              "from": "repeating@^1.1.0",
                              "resolved": "https://registry.npmjs.org/repeating/-/repeating-1.1.2.tgz",
                              "dependencies": {
                                "is-finite": {
                                  "version": "1.0.0",
                                  "from": "is-finite@^1.0.0",
                                  "resolved": "https://registry.npmjs.org/is-finite/-/is-finite-1.0.0.tgz"
                                }
                              }
                            }
                          }
                        }
                      }
                    }
                  }
                },
                "lodash.reescape": {
                  "version": "3.0.1",
                  "from": "lodash.reescape@^3.0.0",
                  "resolved": "https://registry.npmjs.org/lodash.reescape/-/lodash.reescape-3.0.1.tgz",
                  "dependencies": {
                    "lodash._reescape": {
                      "version": "3.0.0",
                      "from": "lodash._reescape@^3.0.0",
                      "resolved": "https://registry.npmjs.org/lodash._reescape/-/lodash._reescape-3.0.0.tgz"
                    }
                  }
                },
                "lodash.reevaluate": {
                  "version": "3.0.1",
                  "from": "lodash.reevaluate@^3.0.0",
                  "resolved": "https://registry.npmjs.org/lodash.reevaluate/-/lodash.reevaluate-3.0.1.tgz",
                  "dependencies": {
                    "lodash._reevaluate": {
                      "version": "3.0.0",
                      "from": "lodash._reevaluate@^3.0.0",
                      "resolved": "https://registry.npmjs.org/lodash._reevaluate/-/lodash._reevaluate-3.0.0.tgz"
                    }
                  }
                },
                "lodash.reinterpolate": {
                  "version": "3.0.1",
                  "from": "lodash.reinterpolate@^3.0.0",
                  "resolved": "https://registry.npmjs.org/lodash.reinterpolate/-/lodash.reinterpolate-3.0.1.tgz",
                  "dependencies": {
                    "lodash._reinterpolate": {
                      "version": "3.0.0",
                      "from": "lodash._reinterpolate@^3.0.0",
                      "resolved": "https://registry.npmjs.org/lodash._reinterpolate/-/lodash._reinterpolate-3.0.0.tgz"
                    }
                  }
                },
                "lodash.template": {
                  "version": "3.2.0",
                  "from": "lodash.template@^3.0.0",
                  "resolved": "https://registry.npmjs.org/lodash.template/-/lodash.template-3.2.0.tgz",
                  "dependencies": {
                    "lodash._basecopy": {
                      "version": "3.0.0",
                      "from": "lodash._basecopy@^3.0.0",
                      "resolved": "https://registry.npmjs.org/lodash._basecopy/-/lodash._basecopy-3.0.0.tgz"
                    },
                    "lodash._baseslice": {
                      "version": "3.0.1",
                      "from": "lodash._baseslice@^3.0.0",
                      "resolved": "https://registry.npmjs.org/lodash._baseslice/-/lodash._baseslice-3.0.1.tgz"
                    },
                    "lodash._basevalues": {
                      "version": "3.0.0",
                      "from": "lodash._basevalues@^3.0.0",
                      "resolved": "https://registry.npmjs.org/lodash._basevalues/-/lodash._basevalues-3.0.0.tgz"
                    },
                    "lodash._isiterateecall": {
                      "version": "3.0.1",
                      "from": "lodash._isiterateecall@^3.0.0",
                      "resolved": "https://registry.npmjs.org/lodash._isiterateecall/-/lodash._isiterateecall-3.0.1.tgz"
                    },
                    "lodash._reinterpolate": {
                      "version": "3.0.0",
                      "from": "lodash._reinterpolate@^3.0.0",
                      "resolved": "https://registry.npmjs.org/lodash._reinterpolate/-/lodash._reinterpolate-3.0.0.tgz"
                    },
                    "lodash.keys": {
                      "version": "3.0.3",
                      "from": "lodash.keys@^3.0.0",
                      "resolved": "https://registry.npmjs.org/lodash.keys/-/lodash.keys-3.0.3.tgz",
                      "dependencies": {
                        "lodash.isarguments": {
                          "version": "3.0.0",
                          "from": "lodash.isarguments@^3.0.0",
                          "resolved": "https://registry.npmjs.org/lodash.isarguments/-/lodash.isarguments-3.0.0.tgz"
                        },
                        "lodash.isarray": {
                          "version": "3.0.0",
                          "from": "lodash.isarray@^3.0.0",
                          "resolved": "https://registry.npmjs.org/lodash.isarray/-/lodash.isarray-3.0.0.tgz"
                        },
                        "lodash.isnative": {
                          "version": "3.0.0",
                          "from": "lodash.isnative@^3.0.0",
                          "resolved": "https://registry.npmjs.org/lodash.isnative/-/lodash.isnative-3.0.0.tgz"
                        }
                      }
                    },
                    "lodash.templatesettings": {
                      "version": "3.0.1",
                      "from": "lodash.templatesettings@^3.0.0",
                      "resolved": "https://registry.npmjs.org/lodash.templatesettings/-/lodash.templatesettings-3.0.1.tgz",
                      "dependencies": {
                        "lodash._reescape": {
                          "version": "3.0.0",
                          "from": "lodash._reescape@^3.0.0",
                          "resolved": "https://registry.npmjs.org/lodash._reescape/-/lodash._reescape-3.0.0.tgz"
                        },
                        "lodash._reevaluate": {
                          "version": "3.0.0",
                          "from": "lodash._reevaluate@^3.0.0",
                          "resolved": "https://registry.npmjs.org/lodash._reevaluate/-/lodash._reevaluate-3.0.0.tgz"
                        },
                        "lodash.escape": {
                          "version": "3.0.0",
                          "from": "lodash.escape@^3.0.0",
                          "resolved": "https://registry.npmjs.org/lodash.escape/-/lodash.escape-3.0.0.tgz",
                          "dependencies": {
                            "lodash._basetostring": {
                              "version": "3.0.0",
                              "from": "lodash._basetostring@^3.0.0",
                              "resolved": "https://registry.npmjs.org/lodash._basetostring/-/lodash._basetostring-3.0.0.tgz"
                            }
                          }
                        }
                      }
                    }
                  }
                },
                "minimist": {
                  "version": "1.1.0",
                  "from": "minimist@^1.1.0",
                  "resolved": "https://registry.npmjs.org/minimist/-/minimist-1.1.0.tgz"
                },
                "multipipe": {
                  "version": "0.1.2",
                  "from": "multipipe@^0.1.2",
                  "resolved": "https://registry.npmjs.org/multipipe/-/multipipe-0.1.2.tgz",
                  "dependencies": {
                    "duplexer2": {
                      "version": "0.0.2",
                      "from": "duplexer2@0.0.2",
                      "resolved": "https://registry.npmjs.org/duplexer2/-/duplexer2-0.0.2.tgz",
                      "dependencies": {
                        "readable-stream": {
                          "version": "1.1.13",
                          "from": "readable-stream@~1.1.9",
                          "resolved": "https://registry.npmjs.org/readable-stream/-/readable-stream-1.1.13.tgz",
                          "dependencies": {
                            "core-util-is": {
                              "version": "1.0.1",
                              "from": "core-util-is@~1.0.0"
                            },
                            "isarray": {
                              "version": "0.0.1",
                              "from": "isarray@0.0.1"
                            },
                            "string_decoder": {
                              "version": "0.10.31",
                              "from": "string_decoder@~0.10.x"
                            },
                            "inherits": {
                              "version": "2.0.1",
                              "from": "inherits@~2.0.1"
                            }
                          }
                        }
                      }
                    }
                  }
                },
                "object-assign": {
                  "version": "2.0.0",
                  "from": "object-assign@^2.0.0",
                  "resolved": "https://registry.npmjs.org/object-assign/-/object-assign-2.0.0.tgz"
                },
                "replace-ext": {
                  "version": "0.0.1",
                  "from": "replace-ext@0.0.1",
                  "resolved": "https://registry.npmjs.org/replace-ext/-/replace-ext-0.0.1.tgz"
                },
                "through2": {
                  "version": "0.6.3",
                  "from": "through2@^0.6.1",
                  "resolved": "https://registry.npmjs.org/through2/-/through2-0.6.3.tgz",
                  "dependencies": {
                    "readable-stream": {
                      "version": "1.0.33",
                      "from": "readable-stream@>=1.0.33-1 <1.1.0-0",
                      "dependencies": {
                        "core-util-is": {
                          "version": "1.0.1",
                          "from": "core-util-is@~1.0.0"
                        },
                        "isarray": {
                          "version": "0.0.1",
                          "from": "isarray@0.0.1"
                        },
                        "string_decoder": {
                          "version": "0.10.31",
                          "from": "string_decoder@~0.10.x"
                        },
                        "inherits": {
                          "version": "2.0.1",
                          "from": "inherits@~2.0.1"
                        }
                      }
                    },
                    "xtend": {
                      "version": "4.0.0",
                      "from": "xtend@>=4.0.0 <4.1.0-0",
                      "resolved": "https://registry.npmjs.org/xtend/-/xtend-4.0.0.tgz"
                    }
                  }
                },
                "vinyl": {
                  "version": "0.4.6",
                  "from": "vinyl@^0.4.0",
                  "resolved": "https://registry.npmjs.org/vinyl/-/vinyl-0.4.6.tgz",
                  "dependencies": {
                    "clone": {
                      "version": "0.2.0",
                      "from": "clone@^0.2.0",
                      "resolved": "https://registry.npmjs.org/clone/-/clone-0.2.0.tgz"
                    },
                    "clone-stats": {
                      "version": "0.0.1",
                      "from": "clone-stats@^0.0.1",
                      "resolved": "https://registry.npmjs.org/clone-stats/-/clone-stats-0.0.1.tgz"
                    }
                  }
                }
              }
            }
          }
        },
        "js-beautify": {
          "version": "1.5.4",
          "from": "js-beautify@^1.5.4",
          "resolved": "https://registry.npmjs.org/js-beautify/-/js-beautify-1.5.4.tgz",
          "dependencies": {
            "config-chain": {
              "version": "1.1.8",
              "from": "config-chain@~1.1.5",
              "resolved": "https://registry.npmjs.org/config-chain/-/config-chain-1.1.8.tgz",
              "dependencies": {
                "proto-list": {
                  "version": "1.2.3",
                  "from": "proto-list@~1.2.1",
                  "resolved": "https://registry.npmjs.org/proto-list/-/proto-list-1.2.3.tgz"
                },
                "ini": {
                  "version": "1.3.3",
                  "from": "ini@1"
                }
              }
            },
            "mkdirp": {
              "version": "0.5.0",
              "from": "mkdirp@^0.5.0",
              "resolved": "https://registry.npmjs.org/mkdirp/-/mkdirp-0.5.0.tgz",
              "dependencies": {
                "minimist": {
                  "version": "0.0.8",
                  "from": "minimist@0.0.8",
                  "resolved": "https://registry.npmjs.org/minimist/-/minimist-0.0.8.tgz"
                }
              }
            },
            "nopt": {
              "version": "3.0.1",
              "from": "nopt@~3.0.1",
              "resolved": "https://registry.npmjs.org/nopt/-/nopt-3.0.1.tgz",
              "dependencies": {
                "abbrev": {
                  "version": "1.0.5",
                  "from": "abbrev@1",
                  "resolved": "https://registry.npmjs.org/abbrev/-/abbrev-1.0.5.tgz"
                }
              }
            }
          }
        },
        "lodash": {
          "version": "3.2.0",
          "from": "lodash@^3.0.1",
          "resolved": "https://registry.npmjs.org/lodash/-/lodash-3.2.0.tgz"
        },
        "moment": {
          "version": "2.9.0",
          "from": "moment@^2.9.0",
          "resolved": "https://registry.npmjs.org/moment/-/moment-2.9.0.tgz"
        },
        "resolve": {
          "version": "1.1.2",
          "from": "resolve@^1.0.0",
          "resolved": "https://registry.npmjs.org/resolve/-/resolve-1.1.2.tgz"
        },
        "umzug": {
          "version": "1.4.0",
          "from": "umzug@^1.4.0",
          "resolved": "https://registry.npmjs.org/umzug/-/umzug-1.4.0.tgz",
          "dependencies": {
            "redefine": {
              "version": "0.2.0",
              "from": "redefine@^0.2.0",
              "resolved": "https://registry.npmjs.org/redefine/-/redefine-0.2.0.tgz",
              "dependencies": {
                "wru": {
                  "version": "0.2.7",
                  "from": "wru@>= 0.0.0",
                  "resolved": "https://registry.npmjs.org/wru/-/wru-0.2.7.tgz"
                }
              }
            }
          }
        },
        "yargs": {
          "version": "1.3.3",
          "from": "yargs@^1.3.3"
        }
      }
    },
    "winston": {
      "version": "0.9.0",
      "from": "winston@",
      "resolved": "https://registry.npmjs.org/winston/-/winston-0.9.0.tgz",
      "dependencies": {
        "async": {
          "version": "0.9.0",
          "from": "async@0.9.x",
          "resolved": "https://registry.npmjs.org/async/-/async-0.9.0.tgz"
        },
        "colors": {
          "version": "1.0.3",
          "from": "colors@1.0.x",
          "resolved": "https://registry.npmjs.org/colors/-/colors-1.0.3.tgz"
        },
        "cycle": {
          "version": "1.0.3",
          "from": "cycle@1.0.x",
          "resolved": "https://registry.npmjs.org/cycle/-/cycle-1.0.3.tgz"
        },
        "eyes": {
          "version": "0.1.8",
          "from": "eyes@0.1.x"
        },
        "isstream": {
          "version": "0.1.1",
          "from": "isstream@0.1.x",
          "resolved": "https://registry.npmjs.org/isstream/-/isstream-0.1.1.tgz"
        },
        "pkginfo": {
          "version": "0.3.0",
          "from": "pkginfo@0.3.x",
          "resolved": "https://registry.npmjs.org/pkginfo/-/pkginfo-0.3.0.tgz"
        },
        "stack-trace": {
          "version": "0.0.9",
          "from": "stack-trace@0.0.x",
          "resolved": "https://registry.npmjs.org/stack-trace/-/stack-trace-0.0.9.tgz"
        }
      }
    }
  }
}
